1_RTL/2_TINY_PROJECT/usr_4bit.vcd
$date
    Jul  9, 2026  02:36:59
$end
$version
    TOOL:	xmsim(64)	22.03-s012
$end
$timescale
    1 ps
$end

$scope module tb_usr_4bit $end
$var reg       1 !    clk $end
$var reg       1 "    rst_n $end
$var reg       4 #    i_parallel [3:0] $end
$var reg       1 $    i_shift_l $end
$var reg       1 %    i_shift_r $end
$var reg       2 &    i_mode [1:0] $end
$var wire      4 '    o_data [3:0] $end

$scope module dut $end
$var wire      1 (    clk  $end
$var wire      1 )    rst_n  $end
$var wire      4 *    i_parallel [3:0] $end
$var wire      1 +    i_shift_l  $end
$var wire      1 ,    i_shift_r  $end
$var wire      2 -    i_mode [1:0] $end
$var wire      4 '    o_data [3:0] $end
$var reg       4 .    r_data [3:0] $end
$upscope $end

$upscope $end

$enddefinitions $end
$dumpvars
0!
0"
b0 #
0$
0%
b0 &
b0 '
0(
0)
b0 *
0+
0,
b0 -
b0 .
$end
#5000
1!
1(
#10000
0!
0(
#15000
1!
1(
#20000
1"
0!
b1011 #
b11 &
b11 -
b1011 *
0(
1)
#25000
1!
1(
b1011 .
b1011 '
#30000
0!
b0 &
b0 -
0(
#35000
1!
1(
#40000
0!
b1 &
b1 -
0(
#45000
1!
1(
b110 .
b110 '
#50000
0!
1%
1,
0(
#55000
1!
1(
b1101 .
b1101 '
#60000
0!
b10 &
b10 -
0(
#65000
1!
1(
b110 .
b110 '
#70000
0!
0(
#75000
1!
1(
b11 .
b11 '
#80000
0!
0"
0)
0(
b0 .
b0 '
